Làm sạch (p1)
…
Các hàm thông dụng cho string

VD: xoá dấu trong cột tinh huyen xa

library(stringi)
df %>% 
  mutate(
    tinh_mod = stri_trans_general(tinh, "latin-ascii"),
    huyen_mod = stri_trans_general(huyen, "latin-ascii"),
    xa_mod = stri_trans_general(xa, "latin-ascii")
  ) %>% 
  select(id, tinh, tinh_mod, huyen, huyen_mod, xa, xa_mod)

# A tibble: 1,000 × 7
      id tinh                  tinh_mod             huyen huyen_mod xa    xa_mod
   <dbl> <chr>                 <chr>                <chr> <chr>     <chr> <chr> 
 1     1 Thành phố Hồ Chí Minh Thanh pho Ho Chi Mi… Bình… Binh Cha… Xã T… Xa Ta…
 2     2 Thành phố Hồ Chí Minh Thanh pho Ho Chi Mi… Huyệ… Huyen So… Phườ… Phuon…
 3     3 Thành phố Hồ Chí Minh Thanh pho Ho Chi Mi… Quận… Quan 12   Trun… Trung…
 4     4 Thành phố Hồ Chí Minh Thanh pho Ho Chi Mi… Cần … Can Gio   Xã T… Xa Th…
 5     5 Thành phố Hồ Chí Minh Thanh pho Ho Chi Mi… Thàn… Thanh ph… Phườ… Phuon…
 6     6 Thành phố Hồ Chí Minh Thanh pho Ho Chi Mi… Quận… Quan 6    Xã B… Xa Bi…
 7     7 Thành phố Hồ Chí Minh Thanh pho Ho Chi Mi… Quận… Quan 8    Phườ… Phuon…
 8     8 Thành phố Hồ Chí Minh Thanh pho Ho Chi Mi… Nhà … Nha Be    Xã P… Xa Ph…
 9     9 Thành phố Hồ Chí Minh Thanh pho Ho Chi Mi… Thủ … Thu Duc   Phườ… Phuon…
10    10 Thành phố Hồ Chí Minh Thanh pho Ho Chi Mi… Thủ … Thu Duc   Phườ… Phuon…
# ℹ 990 more rows
…
Sử dụng hàm của stringr cùng regex

VD1: Tìm các hàng có xã số

library(stringr)
df %>% 
  filter(
    str_detect(xa, "[:digit:]")
  ) %>% select(id, xa)

# A tibble: 384 × 2
      id xa       
   <dbl> <chr>    
 1     2 Phường 12
 2     7 Phường 04
 3    14 1        
 4    15 Phường 06
 5    16 Phường 11
 6    21 Phường 01
 7    26 Phường 10
 8    30 Phường 11
 9    33 Phường 05
10    34 Phường 12
# ℹ 374 more rows
…
Sử dụng hàm của stringr cùng regex

VD 2: cần tìm các trẻ ở quận Phú Nhuận hoặc Bình Thạnh

df %>% 
  filter(
    str_detect(
      huyen, 
      "(Phú Nhuận|Bình Thạnh)"
    )
  ) %>% select(id, huyen)

# A tibble: 47 × 2
      id huyen     
   <dbl> <chr>     
 1    39 Phú Nhuận 
 2   101 Bình Thạnh
 3   109 Phú Nhuận 
 4   110 Bình Thạnh
 5   148 Bình Thạnh
 6   173 Bình Thạnh
 7   189 Bình Thạnh
 8   192 Bình Thạnh
 9   202 Phú Nhuận 
10   210 Bình Thạnh
# ℹ 37 more rows
…
VD: tìm các trẻ được tiêm vgb_2 trong 1 tháng kể từ ngày sinh

Cần tính khoảng thời gian từ lúc cấp chứng chỉ đến hiện tại -> dùng lệnh difftime() với unit là days (difftime không có unit month) sau đó chia cho 365

hoặc dùng lệnh month để lấy tháng của 2 mốc thời gian rồi trừ nhau

# --- Cách 1
df %>% 
  filter(
    # gọi difftime để tính khoảng cách thời gian
    difftime(vgb_2, ngaysinh, units = "days")/30 <= 2
  ) %>% select(id, ngaysinh, vgb_2)

# A tibble: 854 × 3
      id ngaysinh   vgb_2     
   <dbl> <date>     <date>    
 1     1 2024-02-19 2024-03-05
 2     3 2024-02-29 2024-03-05
 3     5 2024-03-21 2024-03-30
 4     7 2024-03-15 2024-03-18
 5     8 2024-04-01 2024-04-17
 6    10 2024-03-17 2024-04-04
 7    11 2024-03-19 2024-04-14
 8    12 2024-01-28 2024-02-13
 9    13 2024-01-25 2024-02-13
10    14 2024-03-07 2024-03-05
# ℹ 844 more rows
…
